<svg
        xmlns="http://www.w3.org/2000/svg"
        xmlns:xlink="http://www.w3.org/1999/xlink"
        width="30px" height="30px" viewBox="0 0 30 30">
    <path fill-rule="evenodd"  fill="rgb(51, 153, 255)"
          d="M25.994,25.087 C23.164,28.252 19.293,29.994 15.093,29.994 C12.464,29.994 9.836,29.246 7.493,27.832 C6.104,26.990 4.854,25.951 3.772,24.740 L3.880,28.023 L2.604,28.066 L2.431,22.795 C2.425,22.619 2.493,22.445 2.618,22.320 C2.741,22.194 2.917,22.122 3.090,22.132 L8.327,22.306 L8.285,23.590 L4.361,23.459 C5.435,24.759 6.708,25.858 8.150,26.730 C10.294,28.025 12.695,28.709 15.093,28.709 C18.926,28.709 22.461,27.117 25.045,24.228 C27.348,21.653 28.723,18.200 28.723,14.992 L28.723,14.882 L30.000,14.882 L30.000,14.992 C30.000,18.509 28.502,22.283 25.994,25.087 ZM26.905,7.853 L21.668,7.679 L21.710,6.395 L25.635,6.525 C24.561,5.227 23.287,4.127 21.846,3.255 C19.701,1.960 17.300,1.276 14.903,1.276 C11.069,1.276 7.535,2.867 4.950,5.757 C2.647,8.333 1.272,11.785 1.272,14.992 L1.272,15.102 L-0.004,15.102 L-0.004,14.992 C-0.004,11.476 1.493,7.702 4.001,4.898 C6.831,1.733 10.703,-0.009 14.903,-0.009 C17.531,-0.009 20.160,0.739 22.503,2.153 C23.891,2.995 25.142,4.034 26.223,5.245 L26.116,1.962 L27.392,1.919 L27.565,7.229 C27.559,7.404 27.487,7.563 27.363,7.680 C27.238,7.798 27.075,7.861 26.905,7.853 Z"/>
</svg>