<svg xmlns="http://www.w3.org/2000/svg" width="26" height="24" viewBox="0 0 26 24">
	<path  d="M437.039,1386.01l-8.038-4.1-8.038,4.1,1.535-8.69-6.5-6.15,8.987-1.27L429,1362l4.019,7.9,8.987,1.27-6.5,6.15Zm-18.521-14.04,5.242,4.95-1.237,7,6.478-3.3,6.478,3.3-1.237-7,5.242-4.95-7.244-1.02L429,1364.58l-3.239,6.37Z" transform="translate(-416 -1362)"/>
</svg>
