<svg xmlns="http://www.w3.org/2000/svg" width="44" height="44" viewBox="0 0 44 44">
  <defs>
    <style>
      .cls-11 {
        fill: #fff;
      }

      .cls-22 {
        fill: #36c;
        fill-rule: evenodd;
      }
    </style>
  </defs>
  <rect class="cls-11" x="2" y="2" width="40" height="40"/>
  <path class="cls-22" d="M102,2071H62a2,2,0,0,1-2-2v-40a2,2,0,0,1,2-2h40a2,2,0,0,1,2,2v40A2,2,0,0,1,102,2071Zm-1-41H63v38h38v-38Z" transform="translate(-60 -2027)"/>
  <path class="cls-22" d="M75.744,2055H72.9l-3.305-8.46a31.8,31.8,0,0,1,.3,4.31V2055h-2v-10.66h2.779l3.365,8.47a26.983,26.983,0,0,1-.3-3.79v-4.68h2V2055Zm8.158-9.01H80.146v2.77h3.275v1.63H80.146v2.95h4.026V2055H77.937v-10.66h6.2ZM95.395,2055H92.525l-1.442-8.34L89.565,2055H86.771l-1.8-10.66h2.209l1.187,8.9,1.578-8.9H92.27l1.517,8.9,1.337-8.9h2.088Z" transform="translate(-60 -2027)"/>
</svg>
