<?xml version="1.0" encoding="utf-8"?>
<!-- Generator: Adobe Illustrator 23.0.1, SVG Export Plug-In . SVG Version: 6.00 Build 0)  -->
<svg version="1.1" id="Layer_1" xmlns="http://www.w3.org/2000/svg" xmlns:xlink="http://www.w3.org/1999/xlink" x="0px" y="0px"
	 viewBox="0 0 86.93 19.02" style="enable-background:new 0 0 86.93 19.02;" xml:space="preserve">
<style type="text/css">

	.logo_blue {
	fill: 3366cc;
	}
	.logo_gray{
	fill:#adafb2;
	}
</style>
<g>
	<path class="logo_blue" d="M13.39,12.64v-2.4H4.13V6.36V6.09h0.01C4.16,5.8,4.21,5.52,4.31,5.26c0.12-0.34,0.3-0.65,0.52-0.91
		C5.04,4.09,5.3,3.88,5.59,3.73C5.88,3.58,6.2,3.5,6.53,3.5c1.99,0,4.87,0,6.86,0V0h-7.9C4.86,0,4.26,0.12,3.7,0.33
		C3.15,0.55,2.64,0.86,2.19,1.25C1.74,1.63,1.35,2.09,1.02,2.6C0.7,3.12,0.44,3.68,0.27,4.28C0.09,4.87,0,5.49,0,6.13v12.89h4.13
		V13.8h7.14C12.52,13.8,13.39,13.93,13.39,12.64z"/>
	<path class="logo_gray" d="M14.88,4.97H7.75c-1.25,0-2.12-0.13-2.12,1.16v2.4h9.26v4.01c0,0.54-0.03,0.95-0.26,1.45
		c-0.4,0.86-1.13,1.53-2.14,1.53c-1.99,0-4.87,0-6.86,0v3.5h7.9c0.64,0,1.23-0.12,1.79-0.33c0.56-0.22,1.06-0.52,1.51-0.91
		c0.45-0.39,0.84-0.84,1.17-1.36c0.32-0.52,0.58-1.07,0.75-1.67c0.18-0.6,0.26-1.22,0.27-1.86V0h-4.13V4.97z"/>
	<path class="logo_blue" d="M27.87,0c-2.65,0.32-4.72,2.63-4.72,5.36v13.66h4.11v-8.14h7.43V7.39h-7.43c0-0.59,0-1.36,0-1.99
		c0-1.06,0.78-1.93,1.84-1.93h5.59V0L27.87,0z"/>
	<path class="logo_blue" d="M40.48,7.87c-0.64,0.2-1.22,0.49-1.76,0.86c-0.54,0.37-1,0.79-1.4,1.28c-0.39,0.49-0.7,0.94-0.92,1.5
		c-0.22,0.56-0.33,0.97-0.33,1.57c0,0.73,0.12,1.5,0.35,2.11c0.23,0.61,0.54,1.15,0.95,1.63c0.41,0.47,0.88,0.87,1.42,1.2
		c0.54,0.33,1.12,0.58,1.75,0.75c0.62,0.17,1.27,0.26,1.94,0.26h6.55v-3.48H42.6c-1.3,0-2.37-1.09-2.37-2.42v0
		c0-1.33,1.07-2.25,2.37-2.25h2.17l-2.63,3.54h4.39l2.48-3.54V7.39h-6.53C42.49,7.39,41.82,7.45,40.48,7.87z"/>
	<path class="logo_blue" d="M86.71,10.17c-0.14-0.39-0.34-0.68-0.59-1.02c-0.25-0.34-0.54-0.65-0.87-0.91c-0.33-0.26-0.68-0.47-1.05-0.62
		c-0.38-0.15-0.76-0.23-1.15-0.23h-7.88v11.63l4.13,0v-8.14h2.31c0.19,0,0.37,0.06,0.55,0.18c0.18,0.12,0.32,0.26,0.44,0.44
		c0.11,0.18,0.18,0.38,0.18,0.57v6.95h4.15v-7.66C86.93,10.96,86.86,10.56,86.71,10.17z"/>
	<path class="logo_blue" d="M72.36,9.66c-0.44-0.48-0.95-0.88-1.53-1.22c-0.58-0.34-1.2-0.6-1.86-0.77c-0.66-0.18-1.33-0.27-2.02-0.27
		c-0.69,0-1.37,0.09-2.03,0.27c-0.66,0.18-1.29,0.44-1.87,0.77c-0.58,0.34-1.09,0.75-1.54,1.22c-0.44,0.48-0.79,1.01-1.04,1.61
		c-0.25,0.6-0.38,1.24-0.38,1.94c0,0.7,0.13,1.38,0.38,1.97c0.25,0.6,0.59,1.13,1.02,1.6c0.44,0.48,0.94,0.88,1.52,1.21
		c0.58,0.33,1.2,0.59,1.87,0.77c0.67,0.18,1.35,0.26,2.06,0.27c0.7,0,1.39-0.09,2.05-0.27c0.66-0.18,1.29-0.43,1.87-0.77
		c0.58-0.33,1.09-0.74,1.52-1.21c0.44-0.47,0.78-1.01,1.03-1.6c0.25-0.59,0.37-1.27,0.38-1.97c0-0.7-0.13-1.34-0.38-1.94
		C73.15,10.67,72.8,10.13,72.36,9.66z M67.09,15.54h-0.31c-1.55,0-2.82-1.1-2.82-2.43c0-1.33,1.27-2.24,2.82-2.24h0.31
		c1.55,0,2.82,0.91,2.82,2.24C69.91,14.44,68.64,15.54,67.09,15.54z"/>
	<path class="logo_blue" d="M52.78,7.73c-0.47,0.22-0.88,0.53-1.23,0.93c-0.35,0.39-0.63,0.78-0.83,1.3c-0.2,0.52-0.3,1.26-0.3,1.87v7.18
		h4.13v-6.2c0-0.35,0.08-0.7,0.24-0.99c0.16-0.29,0.37-0.52,0.63-0.69c0.27-0.17,0.57-0.26,0.9-0.26h2.38V7.39h-4.41
		C53.75,7.39,53.24,7.51,52.78,7.73z"/>
</g>
</svg>
