<svg xmlns="http://www.w3.org/2000/svg" width="16" height="16" viewBox="0 0 16 16">
  <path d="M970,1100l2.719-5.02,8.741-8.76,2.292,2.3-8.741,8.75Zm12.606-14.92,0.86-.86a0.8,0.8,0,0,1,1.146,0l1.146,1.14a0.816,0.816,0,0,1,0,1.15l-0.86.86Z" transform="translate(-970 -1084)"/>
</svg>
