<svg xmlns="http://www.w3.org/2000/svg" width="40.812" height="79.44" viewBox="0 0 40.812 79.44">

<defs>
    <style>
      .cls-1sdffsfdvsdfv {
        fill: #36c;
        fill-rule: evenodd;
      }
    </style>
  </defs>
  <path  class="cls-1sdffsfdvsdfv" d="M151.606,1294.22c0.736,1.93,1.553,7.24,2.122,10.93,0.056,0.37.108,0.7,0.162,1.05l1.83-1.25c-0.006-.03-0.011-0.07-0.017-0.11-1.528-9.93-2.183-13.15-4.088-13.15H151.6c-1.308.01-2.445,0.99-4.162,13.17l1.981,0.28C150.42,1298.06,151.173,1295.3,151.606,1294.22Zm11.165,5.92a33.333,33.333,0,0,1,1.4-5.92,29.363,29.363,0,0,1,1.024,4.27l1.8-1.23c-0.807-4.07-1.525-5.57-2.818-5.57h-0.011c-1.185.01-2.229,0.81-3.691,10.01Zm-3.542,9.72a33.2,33.2,0,0,1-1.4,5.92,29.363,29.363,0,0,1-1.024-4.27l-1.8,1.24c0.806,4.06,1.524,5.56,2.818,5.56h0.011c1.185-.01,2.23-0.81,3.691-10.01Zm11.165,5.92c-0.737-1.93-1.554-7.24-2.123-10.93-0.056-.37-0.108-0.7-0.162-1.05l-1.83,1.25c0,0.03.011,0.07,0.016,0.1,1.529,9.93,2.185,13.16,4.09,13.16H170.4c1.308-.01,2.445-0.99,4.161-13.17l-1.981-.28C171.579,1311.94,170.826,1314.7,170.394,1315.78Zm8.973-24.54,1.144,1.68-37.878,25.84-1.144-1.68,37.878-25.84m-21.534,53.18c0-1.59-1.122-2.37-2.992-2.37h-0.869v-1.5h2.816l0.176-1.25h-4.61v7.62h2.5C156.59,1346.92,157.833,1346.15,157.833,1344.42Zm-3.861,1.3v-2.52h0.748a1.267,1.267,0,1,1,.044,2.52h-0.792Zm7.8,1.37a3.448,3.448,0,0,0,2.211-.79l-0.649-.88a2.364,2.364,0,0,1-1.419.5,1.305,1.305,0,0,1-1.387-1.45h3.642c0.011-.16.033-0.4,0.033-0.6,0-1.86-.979-2.96-2.63-2.96-1.705,0-2.651,1.36-2.651,3.12C158.921,1345.86,159.9,1347.09,161.771,1347.09Zm-0.166-5.11c0.749,0,1.045.57,1.045,1.45v0.06h-2.123C160.6,1342.39,160.989,1341.98,161.6,1341.98Zm5.478,3.98a2.586,2.586,0,0,1-1.54-.46l-0.748.88a3.745,3.745,0,0,0,2.343.71c1.518,0,2.651-.6,2.651-1.87,0-.86-0.55-1.26-1.551-1.42a1.325,1.325,0,0,0,1.254-1.28c0-1.03-1.022-1.61-2.233-1.61a3.777,3.777,0,0,0-2.278.67l0.727,0.85a2.215,2.215,0,0,1,1.331-.42,0.712,0.712,0,0,1,.869.65,0.809,0.809,0,0,1-1,.72h-0.66l-0.1,1.05h0.88c0.693,0,1.133.19,1.133,0.72A0.866,0.866,0,0,1,167.083,1345.96ZM140.6,1357.92h1.562v-4.66h1.761v4.66h1.561v-5.84H140.6v5.84Zm10.132-5.84-1.233,4.82-1.166-4.82h-1.661l1.815,5.84h0.539a1.89,1.89,0,0,1-1.871,1.29l0.165,1.13a3.183,3.183,0,0,0,3.147-2.41l1.882-5.85h-1.617Zm2.969,2.49c-0.132,1.83-.2,2.04-0.88,2.33l0.374,1.15c1.551-.38,1.76-1.1,1.958-3.38l0.121-1.42h1.288v4.67h1.562v-5.84h-4.236Zm8.459-.66h-0.5v-1.83H160.1v5.84h2.3c1.365,0,2.432-.65,2.432-2.01C164.835,1354.65,164.064,1353.91,162.161,1353.91Zm0.088,2.95h-0.583v-1.92h0.484A0.964,0.964,0,1,1,162.249,1356.86Zm6.567-3.74a1.753,1.753,0,0,1,1.144.42l0.683-.93a2.813,2.813,0,0,0-1.937-.7c-1.7,0-2.783,1.29-2.783,3.13a2.729,2.729,0,0,0,2.805,3.05,2.922,2.922,0,0,0,1.915-.68l-0.683-.98a1.941,1.941,0,0,1-1.155.41c-0.737,0-1.232-.45-1.232-1.81S168.035,1353.12,168.816,1353.12Zm7.5,3.18v-2.36c0-1.32-.693-2.03-2.31-2.03a5.975,5.975,0,0,0-2.156.43l0.352,1.04a5.617,5.617,0,0,1,1.54-.31,0.845,0.845,0,0,1,1.045.96v0.29h-0.671c-1.727,0-2.684.69-2.684,1.97a1.745,1.745,0,0,0,1.892,1.8,1.968,1.968,0,0,0,1.749-.88,1.4,1.4,0,0,0,1.342.86l0.33-1.03A0.634,0.634,0,0,1,176.318,1356.3Zm-1.529.02a1.152,1.152,0,0,1-1.034.65,0.712,0.712,0,0,1-.748-0.82c0-.63.418-0.94,1.265-0.94h0.517v1.11Zm3.2-2.46v1.23h3.41v-1.23h-3.41Zm-21.729,9.22H154.7v4.66h-1.705v-4.66h-1.562v5.84h4.411l0.187,1.78h1.112v-2.95H156.26v-4.67Zm3.421,4.3a10.322,10.322,0,0,0,.2-2.06v-2.24h-1.5v5.84h1.628l2.068-4.3a9.867,9.867,0,0,0-.209,2.08v2.22h1.5v-5.84h-1.65Zm10-7.05-0.891-.16a0.871,0.871,0,0,1-.957.66,0.845,0.845,0,0,1-.946-0.66l-0.891.16A1.861,1.861,0,0,0,169.68,1360.33Zm-3.036,7.05a10.4,10.4,0,0,0,.2-2.06v-2.24h-1.5v5.84h1.628l2.068-4.3a9.867,9.867,0,0,0-.209,2.08v2.22h1.5v-5.84h-1.65Z" transform="translate(-140.594 -1291.25)"/>
</svg>
