<svg xmlns="http://www.w3.org/2000/svg" width="25.69" height="61.94" viewBox="0 0 25.69 61.94">

<defs>
    <style>
      .cls11113-1 {
        fill: #36c;
        fill-rule: evenodd;
      }
    </style>
  </defs>
  <path  class="cls11113-1" d="M1066.34,1261.05l-16.34,2.58-6,28.39,10.93-1.34L1046.2,1323l23.5-42.16-10.74,1.08Z" transform="translate(-1044 -1261.06)"/>
</svg>
