<svg xmlns="http://www.w3.org/2000/svg" width="23" height="23" viewBox="0 0 23 23">
  <path   d="M1017,98.222l-0.78.781-6.74-6.534a9.382,9.382,0,1,1,.99-0.987Zm-7.72-18.749a8.348,8.348,0,1,0,0,11.807A8.348,8.348,0,0,0,1009.28,79.473Z" transform="translate(-994 -76)"/>
</svg>
